{
  "images": [
    {
      "id": 31354013,
      "name": "6.9 x32",
      "distribution": "CentOS",
      "slug": "centos-6-x32",
      "public": true,
      "regions": [
        "nyc1",
        "sfo1",
        "nyc2",
        "ams2",
        "sgp1",
        "lon1",
        "nyc3",
        "ams3",
        "fra1",
        "tor1",
        "sfo2",
        "blr1",
        "sfo3"
      ],
      "created_at": "2018-01-30T12:26:21Z",
      "min_disk_size": 20,
      "type": "snapshot",
      "size_gigabytes": 0.33,
      "description": "Centos 6.9 x32 20180130",
      "tags": [],
      "status": "available",
      "error_message": ""
    },
    {
      "id": 34902021,
      "name": "6.9 x64",
      "distribution": "CentOS",
      "slug": "centos-6-x64",
      "public": true,
      "regions": [
        "nyc1",
        "sfo1",
        "nyc2",
        "ams2",
        "sgp1",
        "lon1",
        "nyc3",
        "ams3",
        "fra1",
        "tor1",
        "sfo2",
        "blr1",
        "sfo3"
      ],
      "created_at": "2018-06-02T00:21:33Z",
      "min_disk_size": 20,
      "type": "snapshot",
      "size_gigabytes": 0.35,
      "description": "Centos 6.9 x64 20180602",
      "tags": [],
      "status": "available",
      "error_message": ""
    },
    {
      "id": 54203610,
      "name": "16.04.6 (LTS) x32",
      "distribution": "Ubuntu",
      "slug": "ubuntu-16-04-x32",
      "public": true,
      "regions": [
        "nyc1",
        "sfo1",
        "nyc2",
        "ams2",
        "sgp1",
        "lon1",
        "nyc3",
        "ams3",
        "fra1",
        "tor1",
        "sfo2",
        "blr1",
        "sfo3"
      ],
      "created_at": "2019-10-29T00:04:01Z",
      "min_disk_size": 20,
      "type": "snapshot",
      "size_gigabytes": 2.36,
      "description": "Ubuntu 16.04.6 x32 20191029",
      "tags": [],
      "status": "available",
      "error_message": ""
    },
    {
      "id": 59416024,
      "name": "12.1 x64 ufs",
      "distribution": "FreeBSD",
      "slug": "freebsd-12-x64",
      "public": true,
      "regions": [
        "nyc1",
        "sfo1",
        "nyc2",
        "ams2",
        "sgp1",
        "lon1",
        "nyc3",
        "ams3",
        "fra1",
        "tor1",
        "sfo2",
        "blr1",
        "sfo3"
      ],
      "created_at": "2020-02-18T22:06:39Z",
      "min_disk_size": 20,
      "type": "snapshot",
      "size_gigabytes": 20.97,
      "description": "Freebsd freebsd-12-1 x64 20200218 ufs",
      "tags": [],
      "status": "available",
      "error_message": ""
    },
    {
      "id": 65416372,
      "name": "v1.5.6",
      "distribution": "RancherOS",
      "slug": "rancheros",
      "public": true,
      "regions": [
        "nyc1",
        "sfo1",
        "nyc2",
        "ams2",
        "sgp1",
        "lon1",
        "nyc3",
        "ams3",
        "fra1",
        "tor1",
        "sfo2",
        "blr1",
        "sfo3"
      ],
      "created_at": "2020-06-18T21:03:14Z",
      "min_disk_size": 20,
      "type": "snapshot",
      "size_gigabytes": 10.74,
      "description": "RancherOS Release",
      "tags": [],
      "status": "available",
      "error_message": ""
    },
    {
      "id": 69439389,
      "name": "18.04 (LTS) x64",
      "distribution": "Ubuntu",
      "slug": "ubuntu-18-04-x64",
      "public": true,
      "regions": [
        "nyc1",
        "sfo1",
        "nyc2",
        "ams2",
        "sgp1",
        "lon1",
        "nyc3",
        "ams3",
        "fra1",
        "tor1",
        "sfo2",
        "blr1",
        "sfo3"
      ],
      "created_at": "2020-09-02T19:36:10Z",
      "min_disk_size": 15,
      "type": "snapshot",
      "size_gigabytes": 2.36,
      "description": "Ubuntu 18.04 x86 image",
      "tags": [],
      "status": "available",
      "error_message": ""
    },
    {
      "id": 69439428,
      "name": "32 x64",
      "distribution": "Fedora",
      "slug": "fedora-32-x64",
      "public": true,
      "regions": [
        "nyc1",
        "sfo1",
        "nyc2",
        "ams2",
        "sgp1",
        "lon1",
        "nyc3",
        "ams3",
        "fra1",
        "tor1",
        "sfo2",
        "blr1",
        "sfo3"
      ],
      "created_at": "2020-09-02T19:37:13Z",
      "min_disk_size": 15,
      "type": "snapshot",
      "size_gigabytes": 4.3,
      "description": "Fedora 32 x64",
      "tags": [],
      "status": "available",
      "error_message": ""
    },
    {
      "id": 69439535,
      "name": "8.2 x64",
      "distribution": "CentOS",
      "slug": "centos-8-x64",
      "public": true,
      "regions": [
        "nyc1",
        "sfo1",
        "nyc2",
        "ams2",
        "sgp1",
        "lon1",
        "nyc3",
        "ams3",
        "fra1",
        "tor1",
        "sfo2",
        "blr1",
        "sfo3"
      ],
      "created_at": "2020-09-02T19:39:15Z",
      "min_disk_size": 15,
      "type": "snapshot",
      "size_gigabytes": 10.74,
      "description": "CentOS 8.2 x64",
      "tags": [],
      "status": "available",
      "error_message": ""
    },
    {
      "id": 69440038,
      "name": "10 x64",
      "distribution": "Debian",
      "slug": "debian-10-x64",
      "public": true,
      "regions": [
        "nyc1",
        "sfo1",
        "nyc2",
        "ams2",
        "sgp1",
        "lon1",
        "nyc3",
        "ams3",
        "fra1",
        "tor1",
        "sfo2",
        "blr1",
        "sfo3"
      ],
      "created_at": "2020-09-02T19:51:15Z",
      "min_disk_size": 15,
      "type": "snapshot",
      "size_gigabytes": 2.15,
      "description": "Debian 10 x86 image",
      "tags": [],
      "status": "available",
      "error_message": ""
    },
    {
      "id": 69440042,
      "name": "9 x64",
      "distribution": "Debian",
      "slug": "debian-9-x64",
      "public": true,
      "regions": [
        "nyc1",
        "sfo1",
        "nyc2",
        "ams2",
        "sgp1",
        "lon1",
        "nyc3",
        "ams3",
        "fra1",
        "tor1",
        "sfo2",
        "blr1",
        "sfo3"
      ],
      "created_at": "2020-09-02T19:51:41Z",
      "min_disk_size": 15,
      "type": "snapshot",
      "size_gigabytes": 2.15,
      "description": "Debian 9 x86 image",
      "tags": [],
      "status": "available",
      "error_message": ""
    },
    {
      "id": 69451585,
      "name": "16.04 (LTS) x64",
      "distribution": "Ubuntu",
      "slug": "ubuntu-16-04-x64",
      "public": true,
      "regions": [
        "nyc1",
        "sfo1",
        "nyc2",
        "ams2",
        "sgp1",
        "lon1",
        "nyc3",
        "ams3",
        "fra1",
        "tor1",
        "sfo2",
        "blr1",
        "sfo3"
      ],
      "created_at": "2020-09-02T23:19:07Z",
      "min_disk_size": 15,
      "type": "snapshot",
      "size_gigabytes": 2.36,
      "description": "Ubuntu 16.04 x86 image",
      "tags": [],
      "status": "available",
      "error_message": ""
    },
    {
      "id": 69452245,
      "name": "11.4 zfs x64",
      "distribution": "FreeBSD",
      "slug": "freebsd-11-x64-zfs",
      "public": true,
      "regions": [
        "nyc1",
        "sfo1",
        "nyc2",
        "ams2",
        "sgp1",
        "lon1",
        "nyc3",
        "ams3",
        "fra1",
        "tor1",
        "sfo2",
        "blr1",
        "sfo3"
      ],
      "created_at": "2020-09-02T23:36:36Z",
      "min_disk_size": 15,
      "type": "snapshot",
      "size_gigabytes": 20.97,
      "description": "FreeBSD 11.4 ZFS",
      "tags": [],
      "status": "available",
      "error_message": ""
    },
    {
      "id": 69457626,
      "name": "31 x64",
      "distribution": "Fedora",
      "slug": "fedora-31-x64",
      "public": true,
      "regions": [
        "nyc1",
        "sfo1",
        "nyc2",
        "ams2",
        "sgp1",
        "lon1",
        "nyc3",
        "ams3",
        "fra1",
        "tor1",
        "sfo2",
        "blr1",
        "sfo3"
      ],
      "created_at": "2020-09-03T00:55:15Z",
      "min_disk_size": 15,
      "type": "snapshot",
      "size_gigabytes": 4.3,
      "description": "Fedora 31 x64",
      "tags": [],
      "status": "available",
      "error_message": ""
    },
    {
      "id": 69463186,
      "name": "20.04 (LTS) x64",
      "distribution": "Ubuntu",
      "slug": "ubuntu-20-04-x64",
      "public": true,
      "regions": [
        "nyc1",
        "sfo1",
        "nyc2",
        "ams2",
        "sgp1",
        "lon1",
        "nyc3",
        "ams3",
        "fra1",
        "tor1",
        "sfo2",
        "blr1",
        "sfo3"
      ],
      "created_at": "2020-09-03T02:05:57Z",
      "min_disk_size": 15,
      "type": "snapshot",
      "size_gigabytes": 2.36,
      "description": "Ubuntu 20.04 x86",
      "tags": [],
      "status": "available",
      "error_message": ""
    },
    {
      "id": 69500386,
      "name": "11.4 ufs x64",
      "distribution": "FreeBSD",
      "slug": "freebsd-11-x64-ufs",
      "public": true,
      "regions": [
        "nyc1",
        "sfo1",
        "nyc2",
        "ams2",
        "sgp1",
        "lon1",
        "nyc3",
        "ams3",
        "fra1",
        "tor1",
        "sfo2",
        "blr1",
        "sfo3"
      ],
      "created_at": "2020-09-03T21:38:32Z",
      "min_disk_size": 15,
      "type": "snapshot",
      "size_gigabytes": 20.97,
      "description": "FreeBSD 11.4 UFS",
      "tags": [],
      "status": "available",
      "error_message": ""
    },
    {
      "id": 69535713,
      "name": "7.6 x64",
      "distribution": "CentOS",
      "slug": "centos-7-x64",
      "public": true,
      "regions": [
        "nyc1",
        "sfo1",
        "nyc2",
        "ams2",
        "sgp1",
        "lon1",
        "nyc3",
        "ams3",
        "fra1",
        "tor1",
        "sfo2",
        "blr1",
        "sfo3"
      ],
      "created_at": "2020-09-04T06:50:46Z",
      "min_disk_size": 20,
      "type": "snapshot",
      "size_gigabytes": 8.59,
      "description": "7.6 x64",
      "tags": [],
      "status": "available",
      "error_message": ""
    },
    {
      "id": 69761316,
      "name": "12.1 zfs x64",
      "distribution": "FreeBSD",
      "slug": "freebsd-12-x64-zfs",
      "public": true,
      "regions": [
        "nyc1",
        "sfo1",
        "nyc2",
        "ams2",
        "sgp1",
        "lon1",
        "nyc3",
        "ams3",
        "fra1",
        "tor1",
        "sfo2",
        "blr1",
        "sfo3"
      ],
      "created_at": "2020-09-08T18:17:53Z",
      "min_disk_size": 15,
      "type": "snapshot",
      "size_gigabytes": 20.97,
      "description": "FreeBSD 12.1 ZFS",
      "tags": [],
      "status": "available",
      "error_message": ""
    },
    {
      "id": 49506692,
      "name": "Skaffolder 3.0 on Ubuntu 18.04",
      "distribution": "Ubuntu",
      "slug": "skaffolder-18-04",
      "public": true,
      "regions": [
        "nyc1",
        "sfo1",
        "nyc2",
        "ams2",
        "sgp1",
        "lon1",
        "nyc3",
        "ams3",
        "fra1",
        "tor1",
        "sfo2",
        "blr1",
        "sfo3"
      ],
      "created_at": "2019-07-12T01:34:19Z",
      "min_disk_size": 25,
      "type": "snapshot",
      "size_gigabytes": 4.67,
      "description": "Skaffolder 3.0 on Ubuntu 18.04",
      "tags": [],
      "status": "available",
      "error_message": ""
    },
    {
      "id": 50270443,
      "name": "Izenda 3.3.1 on Ubuntu 18.04",
      "distribution": "Ubuntu",
      "slug": "izenda-18-04",
      "public": true,
      "regions": [
        "nyc1",
        "sfo1",
        "nyc2",
        "ams2",
        "sgp1",
        "lon1",
        "nyc3",
        "ams3",
        "fra1",
        "tor1",
        "sfo2",
        "blr1",
        "sfo3"
      ],
      "created_at": "2019-07-30T14:42:36Z",
      "min_disk_size": 20,
      "type": "snapshot",
      "size_gigabytes": 3.13,
      "description": "",
      "tags": [],
      "status": "available",
      "error_message": ""
    },
    {
      "id": 51476094,
      "name": "QCObjects 2.1.157 on Ubuntu 18.04",
      "distribution": "Ubuntu",
      "slug": "quickcorp-qcobjects-18-04",
      "public": true,
      "regions": [
        "nyc1",
        "sfo1",
        "nyc2",
        "ams2",
        "sgp1",
        "lon1",
        "nyc3",
        "ams3",
        "fra1",
        "tor1",
        "sfo2",
        "blr1",
        "sfo3"
      ],
      "created_at": "2019-08-28T01:12:32Z",
      "min_disk_size": 25,
      "type": "snapshot",
      "size_gigabytes": 2.58,
      "description": "QCObjects 2.1.157 on Ubuntu 18.04",
      "tags": [],
      "status": "available",
      "error_message": ""
    }
  ],
  "links": {
    "pages": {
      "last": "https://api.digitalocean.com/v2/images?page=2",
      "next": "https://api.digitalocean.com/v2/images?page=2"
    }
  },
  "meta": {
    "total": 184
  }
}